What motivates a transfer: player performance, transfer fee or rivalry?
…
  }) %>%
  ungroup()

choice_data_1 <- choice_data_1 %>%
  mutate(
    nat_match = ifelse(player_nationality == country, 1, 0),
    rivalry_proximity = ifelse(is.na(rivalry_proximity), 0, rivalry_proximity)
  )

fwrite(choice_data_1,"data/choice_data.csv")
choice_data_1

# A tibble: 3,955 × 33
   country season buyer_raw       team_name     league transfer_type player_name
   <chr>    <dbl> <chr>           <chr>         <chr>  <chr>         <chr>      
 1 France    2018 olympique lyon  Olympique Ly… Ligue… Arrivals      Jason Dena…
 2 Spain     2018 villarreal cf   Villarreal CF LaLiga Arrivals      Ramiro Fun…
 3 England   2018 arsenal fc      Arsenal FC    Premi… Arrivals      Sokratis   
 4 England   2018 west ham united West Ham Uni… Premi… Arrivals      Ryan Frede…
 5 France    2018 losc lille      LOSC Lille    Ligue… Arrivals      Jérémy Pied
 6 England   2018 arsenal fc      Arsenal FC    Premi… Arrivals      Stephan Li…
 7 Spain     2018 real madrid     Real Madrid   LaLiga Arrivals      Thibaut Co…
 8 England   2018 arsenal fc      Arsenal FC    Premi… Arrivals      Bernd Leno 
 9 England   2018 crystal palace  Crystal Pala… Premi… Arrivals      Cheikhou K…
10 England   2018 arsenal fc      Arsenal FC    Premi… Arrivals      Lucas Torr…
# ℹ 3,945 more rows
# ℹ 26 more variables: player_url <chr>, player_position <chr>,
#   player_age <dbl>, player_nationality <chr>, club_2 <chr>, league_2 <chr>,
#   country_2 <chr>, transfer_fee <dbl>, is_loan <lgl>, transfer_notes <chr>,
#   window <chr>, in_squad <dbl>, appearances <dbl>, goals <dbl>,
#   minutes_played <dbl>, team_url <chr>, season_start <dbl>,
#   seller_clean <chr>, buyer_clean <chr>, rivalry_proximity <dbl>, …
…
